{
    "fields": [
        {
            "name": "ETA_NUM",
            "description": "N° FINESS d'inscription e-PMSI",
            "type": "string",
            "nomenclature": "-",
            "length": "9",
            "format": "default",
            "dateCreated": "2005",
            "dateDeleted": "",
            "dateMissing": [],
            "observation": "",
            "regle_gestion": "",
            "type_oracle": "string"
        },
        {
            "name": "RHA_VER",
            "description": "N° version du format du RHA",
            "type": "string",
            "nomenclature": "-",
            "length": "3",
            "format": "default",
            "dateCreated": "2005",
            "dateDeleted": "",
            "dateMissing": [],
            "observation": "",
            "regle_gestion": "",
            "type_oracle": "string"
        },
        {
            "name": "GEN_VER",
            "description": "N° version de GENRHA",
            "type": "string",
            "nomenclature": "-",
            "length": "3",
            "format": "default",
            "dateCreated": "2005",
            "dateDeleted": "",
            "dateMissing": [],
            "observation": "",
            "regle_gestion": "",
            "type_oracle": "string"
        },
        {
            "name": "GRC_VER",
            "description": "Version de groupage Etablissement",
            "type": "string",
            "nomenclature": "-",
            "length": "2",
            "format": "default",
            "dateCreated": "2005",
            "dateDeleted": "",
            "dateMissing": [],
            "observation": "",
            "regle_gestion": "",
            "type_oracle": "string"
        },
        {
            "name": "GRC_GME",
            "description": "Groupage GME Etablissement",
            "type": "string",
            "nomenclature": "-",
            "length": "6",
            "format": "default",
            "dateCreated": "2013",
            "dateDeleted": "",
            "dateMissing": [],
            "observation": "",
            "regle_gestion": "",
            "type_oracle": "string"
        },
        {
            "name": "GRC_RET",
            "description": "Code retour GME Etablissement",
            "type": "string",
            "nomenclature": "-",
            "length": "3",
            "format": "default",
            "dateCreated": "2005",
            "dateDeleted": "",
            "dateMissing": [],
            "observation": "",
            "regle_gestion": "",
            "type_oracle": "string"
        },
        {
            "name": "GRC_TOP_ERR",
            "description": "Indicateur d’erreur GME Etablissement",
            "type": "string",
            "nomenclature": "-",
            "length": "1",
            "format": "default",
            "dateCreated": "2013",
            "dateDeleted": "",
            "dateMissing": [],
            "observation": "",
            "regle_gestion": "",
            "type_oracle": "string"
        },
        {
            "name": "GRG_VER",
            "description": "Version de groupage GENRHA",
            "type": "string",
            "nomenclature": "-",
            "length": "2",
            "format": "default",
            "dateCreated": "2005",
            "dateDeleted": "",
            "dateMissing": [],
            "observation": "",
            "regle_gestion": "",
            "type_oracle": "string"
        },
        {
            "name": "GRG_GME",
            "description": "Groupage GME GENRHA",
            "type": "string",
            "nomenclature": "-",
            "length": "6",
            "format": "default",
            "dateCreated": "2013",
            "dateDeleted": "",
            "dateMissing": [],
            "observation": "",
            "regle_gestion": "",
            "type_oracle": "string"
        },
        {
            "name": "GRG_RET",
            "description": "Code retour GME GENRHA",
            "type": "string",
            "nomenclature": "-",
            "length": "3",
            "format": "default",
            "dateCreated": "2005",
            "dateDeleted": "",
            "dateMissing": [],
            "observation": "",
            "regle_gestion": "",
            "type_oracle": "string"
        },
        {
            "name": "GRG_TOP_ERR",
            "description": "Indicateur d’erreur GME GENRHA",
            "type": "string",
            "nomenclature": "-",
            "length": "1",
            "format": "default",
            "dateCreated": "2013",
            "dateDeleted": "",
            "dateMissing": [],
            "observation": "",
            "regle_gestion": "",
            "type_oracle": "string"
        },
        {
            "name": "TYP_GEN_RHA",
            "description": "Type de génération automatique du RHA",
            "type": "string",
            "nomenclature": "-",
            "length": "1",
            "format": "default",
            "dateCreated": "2015",
            "dateDeleted": "",
            "dateMissing": [],
            "observation": "",
            "regle_gestion": "",
            "type_oracle": "string"
        },
        {
            "name": "RHA_NUM",
            "description": "N° Séquentiel du séjour",
            "type": "string",
            "nomenclature": "-",
            "length": "7",
            "format": "default",
            "dateCreated": "2005",
            "dateDeleted": "",
            "dateMissing": [],
            "observation": "",
            "regle_gestion": "",
            "type_oracle": "string"
        },
        {
            "name": "RHS_NUM",
            "description": "Numéro séquentiel du RHS",
            "type": "string",
            "nomenclature": "-",
            "length": "3",
            "format": "default",
            "dateCreated": "2005",
            "dateDeleted": "",
            "dateMissing": [],
            "observation": "",
            "regle_gestion": "",
            "type_oracle": "string"
        },
        {
            "name": "AGE_ANN",
            "description": "Age",
            "type": "number",
            "nomenclature": "-",
            "length": null,
            "format": "default",
            "dateCreated": "2005",
            "dateDeleted": "",
            "dateMissing": [],
            "observation": "",
            "regle_gestion": "",
            "type_oracle": "number"
        },
        {
            "name": "COD_SEX",
            "description": "Sexe",
            "type": "string",
            "nomenclature": "-",
            "length": "1",
            "format": "default",
            "dateCreated": "2005",
            "dateDeleted": "",
            "dateMissing": [],
            "observation": "",
            "regle_gestion": "",
            "type_oracle": "string"
        },
        {
            "name": "BDI_COD",
            "description": "Code géographique de résidence",
            "type": "string",
            "nomenclature": "-",
            "length": "5",
            "format": "default",
            "dateCreated": "2005",
            "dateDeleted": "",
            "dateMissing": [],
            "observation": "",
            "regle_gestion": "",
            "type_oracle": "string"
        },
        {
            "name": "BDI_DEP",
            "description": "Code département de résidence",
            "type": "string",
            "nomenclature": "-",
            "length": "2",
            "format": "default",
            "dateCreated": "2005",
            "dateDeleted": "",
            "dateMissing": [],
            "observation": "",
            "regle_gestion": "",
            "type_oracle": "string"
        },
        {
            "name": "RHS_ANT_SEJ_ENT",
            "description": "Antériorité du RHS par rapport à l'entrée dans le séjour",
            "type": "number",
            "nomenclature": "-",
            "length": null,
            "format": "default",
            "dateCreated": "2010",
            "dateDeleted": "",
            "dateMissing": [],
            "observation": "",
            "regle_gestion": "",
            "type_oracle": "number"
        },
        {
            "name": "MOI_ANN_SOR_SEJ",
            "description": "Mois/ Année de sortie du séjour",
            "type": "yearmonth",
            "nomenclature": "-",
            "length": "6",
            "format": "default",
            "dateCreated": "2010",
            "dateDeleted": "",
            "dateMissing": [],
            "observation": "",
            "regle_gestion": "",
            "type_oracle": "string"
        },
        {
            "name": "HOS_TYP_UM",
            "description": "Type d’hospitalisation UM",
            "type": "string",
            "nomenclature": "-",
            "length": "1",
            "format": "default",
            "dateCreated": "2009",
            "dateDeleted": "",
            "dateMissing": [],
            "observation": "",
            "regle_gestion": "",
            "type_oracle": "string"
        },
        {
            "name": "AUT_TYP_UM",
            "description": "Type d'autorisation d’UM",
            "type": "string",
            "nomenclature": "-",
            "length": "3",
            "format": "default",
            "dateCreated": "2009",
            "dateDeleted": "",
            "dateMissing": [],
            "observation": "",
            "regle_gestion": "",
            "type_oracle": "string"
        },
        {
            "name": "ETA_NUM_GEO",
            "description": "N° FINESS géographique",
            "type": "string",
            "nomenclature": "-",
            "length": "9",
            "format": "default",
            "dateCreated": "2013",
            "dateDeleted": "",
            "dateMissing": [],
            "observation": "",
            "regle_gestion": "",
            "type_oracle": "string"
        },
        {
            "name": "ENT_MOD",
            "description": "Mode d’entrée UM",
            "type": "string",
            "nomenclature": "MS_SOR_V",
            "length": "1",
            "format": "default",
            "dateCreated": "2005",
            "dateDeleted": "",
            "dateMissing": [],
            "observation": "",
            "regle_gestion": "",
            "type_oracle": "string"
        },
        {
            "name": "ENT_PRV",
            "description": "Provenance",
            "type": "string",
            "nomenclature": "MS_PRV_V",
            "length": "1",
            "format": "default",
            "dateCreated": "2005",
            "dateDeleted": "",
            "dateMissing": [],
            "observation": "",
            "regle_gestion": "",
            "type_oracle": "string"
        },
        {
            "name": "SOR_MOD",
            "description": "Mode de sortie UM",
            "type": "string",
            "nomenclature": "MS_SOR_V",
            "length": "1",
            "format": "default",
            "dateCreated": "2005",
            "dateDeleted": "",
            "dateMissing": [],
            "observation": "",
            "regle_gestion": "",
            "type_oracle": "string"
        },
        {
            "name": "SOR_DES",
            "description": "Destination",
            "type": "string",
            "nomenclature": "MS_PRV_V",
            "length": "1",
            "format": "default",
            "dateCreated": "2005",
            "dateDeleted": "",
            "dateMissing": [],
            "observation": "",
            "regle_gestion": "",
            "type_oracle": "string"
        },
        {
            "name": "DEB_SEM",
            "description": "Semaine de début de séjour SSR",
            "type": "string",
            "nomenclature": "-",
            "length": "1",
            "format": "default",
            "dateCreated": "2005",
            "dateDeleted": "",
            "dateMissing": [],
            "observation": "",
            "regle_gestion": "",
            "type_oracle": "string"
        },
        {
            "name": "DEB_FIN",
            "description": "Semaine de fin de séjour SSR",
            "type": "string",
            "nomenclature": "-",
            "length": "1",
            "format": "default",
            "dateCreated": "2005",
            "dateDeleted": "",
            "dateMissing": [],
            "observation": "",
            "regle_gestion": "",
            "type_oracle": "string"
        },
        {
            "name": "SEJ_ANT",
            "description": "Antériorité du RHS par rapport à l'entrée dans l'UM",
            "type": "number",
            "nomenclature": "-",
            "length": null,
            "format": "default",
            "dateCreated": "2005",
            "dateDeleted": "",
            "dateMissing": [],
            "observation": "",
            "regle_gestion": "",
            "type_oracle": "number"
        },
        {
            "name": "MOI_ANN",
            "description": "Mois Année du RHS",
            "type": "yearmonth",
            "nomenclature": "-",
            "length": "6",
            "format": "default",
            "dateCreated": "2005",
            "dateDeleted": "",
            "dateMissing": [],
            "observation": "",
            "regle_gestion": "",
            "type_oracle": "string"
        },
        {
            "name": "JP_HWE",
            "description": "Jours de présence hors week-end",
            "type": "string",
            "nomenclature": "-",
            "length": "5",
            "format": "default",
            "dateCreated": "2005",
            "dateDeleted": "",
            "dateMissing": [],
            "observation": "",
            "regle_gestion": "",
            "type_oracle": "string"
        },
        {
            "name": "JP_WE",
            "description": "Jours de présence en week-end",
            "type": "string",
            "nomenclature": "-",
            "length": "2",
            "format": "default",
            "dateCreated": "2005",
            "dateDeleted": "",
            "dateMissing": [],
            "observation": "",
            "regle_gestion": "",
            "type_oracle": "string"
        },
        {
            "name": "ANC_CHI",
            "description": "Ancienneté de la date chirurgicale",
            "type": "number",
            "nomenclature": "-",
            "length": null,
            "format": "default",
            "dateCreated": "2005",
            "dateDeleted": "",
            "dateMissing": [],
            "observation": "",
            "regle_gestion": "",
            "type_oracle": "number"
        },
        {
            "name": "FP_PEC",
            "description": "Finalité principale de prise en charge",
            "type": "string",
            "nomenclature": "IR_CIM_V",
            "length": "6",
            "format": "default",
            "dateCreated": "2005",
            "dateDeleted": "",
            "dateMissing": [],
            "observation": "",
            "regle_gestion": "",
            "type_oracle": "string"
        },
        {
            "name": "MOR_PRP",
            "description": "Manifestation morbide principale",
            "type": "string",
            "nomenclature": "IR_CIM_V",
            "length": "6",
            "format": "default",
            "dateCreated": "2005",
            "dateDeleted": "",
            "dateMissing": [],
            "observation": "",
            "regle_gestion": "",
            "type_oracle": "string"
        },
        {
            "name": "ETL_AFF",
            "description": "Affection étiologique",
            "type": "string",
            "nomenclature": "IR_CIM_V",
            "length": "6",
            "format": "default",
            "dateCreated": "2005",
            "dateDeleted": "",
            "dateMissing": [],
            "observation": "",
            "regle_gestion": "",
            "type_oracle": "string"
        },
        {
            "name": "HAB_DEP",
            "description": "Dépendance à l’habillage",
            "type": "string",
            "nomenclature": "-",
            "length": "1",
            "format": "default",
            "dateCreated": "2005",
            "dateDeleted": "",
            "dateMissing": [],
            "observation": "",
            "regle_gestion": "",
            "type_oracle": "string"
        },
        {
            "name": "DPL_DEP",
            "description": "Dépendance au déplacement",
            "type": "string",
            "nomenclature": "-",
            "length": "1",
            "format": "default",
            "dateCreated": "2005",
            "dateDeleted": "",
            "dateMissing": [],
            "observation": "",
            "regle_gestion": "",
            "type_oracle": "string"
        },
        {
            "name": "ALI_DEP",
            "description": "Dépendance à l’alimentation",
            "type": "string",
            "nomenclature": "-",
            "length": "1",
            "format": "default",
            "dateCreated": "2005",
            "dateDeleted": "",
            "dateMissing": [],
            "observation": "",
            "regle_gestion": "",
            "type_oracle": "string"
        },
        {
            "name": "CON_DEP",
            "description": "Dépendance à la continence",
            "type": "string",
            "nomenclature": "-",
            "length": "1",
            "format": "default",
            "dateCreated": "2005",
            "dateDeleted": "",
            "dateMissing": [],
            "observation": "",
            "regle_gestion": "",
            "type_oracle": "string"
        },
        {
            "name": "CPT_DEP",
            "description": "Dépendance au comportement",
            "type": "string",
            "nomenclature": "-",
            "length": "1",
            "format": "default",
            "dateCreated": "2005",
            "dateDeleted": "",
            "dateMissing": [],
            "observation": "",
            "regle_gestion": "",
            "type_oracle": "string"
        },
        {
            "name": "REL_DEP",
            "description": "Dépendance à la relation",
            "type": "string",
            "nomenclature": "-",
            "length": "1",
            "format": "default",
            "dateCreated": "2005",
            "dateDeleted": "",
            "dateMissing": [],
            "observation": "",
            "regle_gestion": "",
            "type_oracle": "string"
        },
        {
            "name": "NBR_DGN",
            "description": "Nombre de diagnostics associés dans ce RHS (n1)",
            "type": "number",
            "nomenclature": "-",
            "length": null,
            "format": "default",
            "dateCreated": "2009",
            "dateDeleted": "",
            "dateMissing": [],
            "observation": "",
            "regle_gestion": "",
            "type_oracle": "number"
        },
        {
            "name": "NBR_CSARR",
            "description": "Nombre d'actes CSARR dans ce RHS (n2)",
            "type": "number",
            "nomenclature": "-",
            "length": null,
            "format": "default",
            "dateCreated": "2014",
            "dateDeleted": "",
            "dateMissing": [],
            "observation": "",
            "regle_gestion": "",
            "type_oracle": "number"
        },
        {
            "name": "NBR_CCAM",
            "description": "Nombre d'actes CCAM dans ce RHS (n3)",
            "type": "number",
            "nomenclature": "-",
            "length": null,
            "format": "default",
            "dateCreated": "2009",
            "dateDeleted": "",
            "dateMissing": [],
            "observation": "",
            "regle_gestion": "",
            "type_oracle": "number"
        },
        {
            "name": "REHOS_PRJ_THP",
            "description": "Poursuite du même projet thérapeutique",
            "type": "string",
            "nomenclature": "-",
            "length": "1",
            "format": "default",
            "dateCreated": "2015",
            "dateDeleted": "",
            "dateMissing": [],
            "observation": "",
            "regle_gestion": "",
            "type_oracle": "string"
        },
        {
            "name": "GMT_NUM",
            "description": "GMT",
            "type": "string",
            "nomenclature": "-",
            "length": null,
            "format": "default",
            "dateCreated": "2017",
            "dateDeleted": "2017",
            "dateMissing": [],
            "observation": "",
            "regle_gestion": "",
            "type_oracle": "string"
        },
        {
            "name": "EXB_TOP",
            "description": "Indicateur d'appartenance à la zone basse",
            "type": "string",
            "nomenclature": "-",
            "length": null,
            "format": "default",
            "dateCreated": "2017",
            "dateDeleted": "2017",
            "dateMissing": [],
            "observation": "",
            "regle_gestion": "",
            "type_oracle": "string"
        },
        {
            "name": "EXB_NBJ",
            "description": "Nombre de journées du supplément zone basse",
            "type": "integer",
            "nomenclature": "-",
            "length": "5",
            "format": "default",
            "dateCreated": "2017",
            "dateDeleted": "2017",
            "dateMissing": [],
            "observation": "",
            "regle_gestion": "",
            "type_oracle": "number"
        },
        {
            "name": "EXH_NBJ",
            "description": "Nombre de journées en zone haute",
            "type": "integer",
            "nomenclature": "-",
            "length": "5",
            "format": "default",
            "dateCreated": "2017",
            "dateDeleted": "2017",
            "dateMissing": [],
            "observation": "",
            "regle_gestion": "",
            "type_oracle": "number"
        },
        {
            "name": "LIT_DEDIE",
            "description": "Lit identifié soins palliatifs (LISP)",
            "type": "string",
            "nomenclature": "-",
            "length": null,
            "format": "default",
            "dateCreated": "2017",
            "dateDeleted": "2017",
            "dateMissing": [],
            "observation": "",
            "regle_gestion": "",
            "type_oracle": "string"
        },
        {
            "name": "SCORE_RR",
            "description": "Score RR",
            "type": "number",
            "nomenclature": "-",
            "length": null,
            "format": "default",
            "dateCreated": "2017",
            "dateDeleted": "2017",
            "dateMissing": [],
            "observation": "",
            "regle_gestion": "",
            "type_oracle": "number"
        },
        {
            "name": "TYP_US",
            "description": "Type unité spécifique",
            "type": "string",
            "nomenclature": "-",
            "length": null,
            "format": "default",
            "dateCreated": "",
            "dateDeleted": "",
            "dateMissing": [],
            "observation": "",
            "regle_gestion": "",
            "type_oracle": "string"
        },
        {
            "name": "ASS_DGN_3",
            "description": "Diagnostic associé n° 3",
            "type": "string",
            "length": "6",
            "dateCreated": "2005",
            "dateDeleted": "2009",
            "nomenclature": "-",
            "dateMissing": [],
            "format": "default",
            "observation": "",
            "regle_gestion": "",
            "type_oracle": "string"
        },
        {
            "name": "ASS_DGN_13",
            "description": "Diagnostic associé n° 13",
            "type": "string",
            "length": "6",
            "dateCreated": "2007",
            "dateDeleted": "2009",
            "nomenclature": "-",
            "dateMissing": [],
            "format": "default",
            "observation": "",
            "regle_gestion": "",
            "type_oracle": "string"
        },
        {
            "name": "ASS_DGN_10",
            "description": "Diagnostic associé n° 10",
            "type": "string",
            "length": "6",
            "dateCreated": "2007",
            "dateDeleted": "2009",
            "nomenclature": "-",
            "dateMissing": [],
            "format": "default",
            "observation": "",
            "regle_gestion": "",
            "type_oracle": "string"
        },
        {
            "name": "ASS_DGN_2",
            "description": "Diagnostic associé n° 2",
            "type": "string",
            "length": "6",
            "dateCreated": "2005",
            "dateDeleted": "2009",
            "nomenclature": "-",
            "dateMissing": [],
            "format": "default",
            "observation": "",
            "regle_gestion": "",
            "type_oracle": "string"
        },
        {
            "name": "PHY",
            "description": "Physiothérapie",
            "type": "number",
            "length": null,
            "dateCreated": "2005",
            "dateDeleted": "2009",
            "nomenclature": "-",
            "dateMissing": [],
            "format": "default",
            "observation": "",
            "regle_gestion": "",
            "type_oracle": "number"
        },
        {
            "name": "BAL",
            "description": "Balnéothérapie",
            "type": "number",
            "length": null,
            "dateCreated": "2005",
            "dateDeleted": "2009",
            "nomenclature": "-",
            "dateMissing": [],
            "format": "default",
            "observation": "",
            "regle_gestion": "",
            "type_oracle": "number"
        },
        {
            "name": "ASS_DGN_8",
            "description": "Diagnostic associé n° 8",
            "type": "string",
            "length": "6",
            "dateCreated": "2007",
            "dateDeleted": "2009",
            "nomenclature": "-",
            "dateMissing": [],
            "format": "default",
            "observation": "",
            "regle_gestion": "",
            "type_oracle": "string"
        },
        {
            "name": "URO_SPH_RED",
            "description": "Rééducation uro-sphinctérienne",
            "type": "number",
            "length": null,
            "dateCreated": "2005",
            "dateDeleted": "2009",
            "nomenclature": "-",
            "dateMissing": [],
            "format": "default",
            "observation": "",
            "regle_gestion": "",
            "type_oracle": "number"
        },
        {
            "name": "ASS_DGN_7",
            "description": "Diagnostic associé n° 7",
            "type": "string",
            "length": "6",
            "dateCreated": "2007",
            "dateDeleted": "2009",
            "nomenclature": "-",
            "dateMissing": [],
            "format": "default",
            "observation": "",
            "regle_gestion": "",
            "type_oracle": "string"
        },
        {
            "name": "FR_UTL",
            "description": "Utilisation d’un fauteuil roulant",
            "type": "string",
            "length": "1",
            "dateCreated": "2005",
            "dateDeleted": "2009",
            "nomenclature": "-",
            "dateMissing": [],
            "format": "default",
            "observation": "",
            "regle_gestion": "",
            "type_oracle": "string"
        },
        {
            "name": "BIL",
            "description": "Bilans",
            "type": "number",
            "length": null,
            "dateCreated": "2005",
            "dateDeleted": "2009",
            "nomenclature": "-",
            "dateMissing": [],
            "format": "default",
            "observation": "",
            "regle_gestion": "",
            "type_oracle": "number"
        },
        {
            "name": "ASS_DGN_17",
            "description": "Diagnostic associé n° 17",
            "type": "string",
            "length": "6",
            "dateCreated": "2007",
            "dateDeleted": "2009",
            "nomenclature": "-",
            "dateMissing": [],
            "format": "default",
            "observation": "",
            "regle_gestion": "",
            "type_oracle": "string"
        },
        {
            "name": "REI_RED",
            "description": "Réadaptation-réinsertion",
            "type": "number",
            "length": null,
            "dateCreated": "2005",
            "dateDeleted": "2009",
            "nomenclature": "-",
            "dateMissing": [],
            "format": "default",
            "observation": "",
            "regle_gestion": "",
            "type_oracle": "number"
        },
        {
            "name": "ASS_DGN_5",
            "description": "Diagnostic associé n° 5",
            "type": "string",
            "length": "6",
            "dateCreated": "2005",
            "dateDeleted": "2009",
            "nomenclature": "-",
            "dateMissing": [],
            "format": "default",
            "observation": "",
            "regle_gestion": "",
            "type_oracle": "string"
        },
        {
            "name": "COL_RED",
            "description": "Rééducation collective",
            "type": "number",
            "length": null,
            "dateCreated": "2005",
            "dateDeleted": "2009",
            "nomenclature": "-",
            "dateMissing": [],
            "format": "default",
            "observation": "",
            "regle_gestion": "",
            "type_oracle": "number"
        },
        {
            "name": "ASS_DGN_1",
            "description": "Diagnostic associé n° 1",
            "type": "string",
            "length": "6",
            "dateCreated": "2005",
            "dateDeleted": "2009",
            "nomenclature": "-",
            "dateMissing": [],
            "format": "default",
            "observation": "",
            "regle_gestion": "",
            "type_oracle": "string"
        },
        {
            "name": "NEU_PSY_RED",
            "description": "Rééducation neuro-psychologique",
            "type": "number",
            "length": null,
            "dateCreated": "2005",
            "dateDeleted": "2009",
            "nomenclature": "-",
            "dateMissing": [],
            "format": "default",
            "observation": "",
            "regle_gestion": "",
            "type_oracle": "number"
        },
        {
            "name": "ASS_DGN_16",
            "description": "Diagnostic associé n° 16",
            "type": "string",
            "length": "6",
            "dateCreated": "2007",
            "dateDeleted": "2009",
            "nomenclature": "-",
            "dateMissing": [],
            "format": "default",
            "observation": "",
            "regle_gestion": "",
            "type_oracle": "string"
        },
        {
            "name": "MEC_RED",
            "description": "Rééducation mécanique",
            "type": "number",
            "length": null,
            "dateCreated": "2005",
            "dateDeleted": "2009",
            "nomenclature": "-",
            "dateMissing": [],
            "format": "default",
            "observation": "",
            "regle_gestion": "",
            "type_oracle": "number"
        },
        {
            "name": "GRC_CMC",
            "description": "CMC de l'établissement",
            "type": "string",
            "length": "2",
            "dateCreated": "2005",
            "dateDeleted": "2013",
            "nomenclature": "-",
            "dateMissing": [],
            "format": "default",
            "observation": "",
            "regle_gestion": "",
            "type_oracle": "string"
        },
        {
            "name": "NUT_RED",
            "description": "Rééducation nutritionnelle",
            "type": "number",
            "length": null,
            "dateCreated": "2005",
            "dateDeleted": "2009",
            "nomenclature": "-",
            "dateMissing": [],
            "format": "default",
            "observation": "",
            "regle_gestion": "",
            "type_oracle": "number"
        },
        {
            "name": "ASS_DGN_18",
            "description": "Diagnostic associé n° 18",
            "type": "string",
            "length": "6",
            "dateCreated": "2007",
            "dateDeleted": "2009",
            "nomenclature": "-",
            "dateMissing": [],
            "format": "default",
            "observation": "",
            "regle_gestion": "",
            "type_oracle": "string"
        },
        {
            "name": "NBR_ACT",
            "description": "Nombre d’actes (n) médicaux",
            "type": "number",
            "length": null,
            "dateCreated": "2005",
            "dateDeleted": "2009",
            "nomenclature": "-",
            "dateMissing": [],
            "format": "default",
            "observation": "",
            "regle_gestion": "",
            "type_oracle": "number"
        },
        {
            "name": "GRC_GHJ",
            "description": "GHJ de l'établissement",
            "type": "string",
            "length": "3",
            "dateCreated": "2005",
            "dateDeleted": "2013",
            "nomenclature": "-",
            "dateMissing": [],
            "format": "default",
            "observation": "",
            "regle_gestion": "",
            "type_oracle": "string"
        },
        {
            "name": "NBR_CCAR",
            "description": "Nombre d'actes CdARR dans ce RHS (n2)",
            "type": "number",
            "length": null,
            "dateCreated": "2009",
            "dateDeleted": "2014",
            "nomenclature": "-",
            "dateMissing": [],
            "format": "default",
            "observation": "",
            "regle_gestion": "",
            "type_oracle": "number"
        },
        {
            "name": "GRG_GHJ",
            "description": "GHJ du GENRHA",
            "type": "string",
            "length": "3",
            "dateCreated": "2005",
            "dateDeleted": "2013",
            "nomenclature": "-",
            "dateMissing": [],
            "format": "default",
            "observation": "",
            "regle_gestion": "",
            "type_oracle": "string"
        },
        {
            "name": "ASS_DGN_11",
            "description": "Diagnostic associé n° 11",
            "type": "string",
            "length": "6",
            "dateCreated": "2007",
            "dateDeleted": "2009",
            "nomenclature": "-",
            "dateMissing": [],
            "format": "default",
            "observation": "",
            "regle_gestion": "",
            "type_oracle": "string"
        },
        {
            "name": "ASS_DGN_14",
            "description": "Diagnostic associé n° 14",
            "type": "string",
            "length": "6",
            "dateCreated": "2007",
            "dateDeleted": "2009",
            "nomenclature": "-",
            "dateMissing": [],
            "format": "default",
            "observation": "",
            "regle_gestion": "",
            "type_oracle": "string"
        },
        {
            "name": "ASS_DGN_9",
            "description": "Diagnostic associé n° 9",
            "type": "string",
            "length": "6",
            "dateCreated": "2007",
            "dateDeleted": "2009",
            "nomenclature": "-",
            "dateMissing": [],
            "format": "default",
            "observation": "",
            "regle_gestion": "",
            "type_oracle": "string"
        },
        {
            "name": "ASS_DGN_19",
            "description": "Diagnostic associé n° 19",
            "type": "string",
            "length": "6",
            "dateCreated": "2007",
            "dateDeleted": "2009",
            "nomenclature": "-",
            "dateMissing": [],
            "format": "default",
            "observation": "",
            "regle_gestion": "",
            "type_oracle": "string"
        },
        {
            "name": "RHS_NBR_IVA",
            "description": "Nombre total de points IVA  du RHS",
            "type": "string",
            "length": "5",
            "dateCreated": "2009",
            "dateDeleted": "2014",
            "nomenclature": "-",
            "dateMissing": [],
            "format": "default",
            "observation": "",
            "regle_gestion": "",
            "type_oracle": "string"
        },
        {
            "name": "ASS_DGN_12",
            "description": "Diagnostic associé n° 12",
            "type": "string",
            "length": "6",
            "dateCreated": "2007",
            "dateDeleted": "2009",
            "nomenclature": "-",
            "dateMissing": [],
            "format": "default",
            "observation": "",
            "regle_gestion": "",
            "type_oracle": "string"
        },
        {
            "name": "APP_ADP",
            "description": "Adaptation d’appareillage",
            "type": "number",
            "length": null,
            "dateCreated": "2005",
            "dateDeleted": "2009",
            "nomenclature": "-",
            "dateMissing": [],
            "format": "default",
            "observation": "",
            "regle_gestion": "",
            "type_oracle": "number"
        },
        {
            "name": "GRG_CMC",
            "description": "CMC du GENRHA",
            "type": "string",
            "length": "2",
            "dateCreated": "2005",
            "dateDeleted": "2013",
            "nomenclature": "-",
            "dateMissing": [],
            "format": "default",
            "observation": "",
            "regle_gestion": "",
            "type_oracle": "string"
        },
        {
            "name": "ASS_DGN_20",
            "description": "Diagnostic associé n° 20",
            "type": "string",
            "length": "6",
            "dateCreated": "2007",
            "dateDeleted": "2009",
            "nomenclature": "-",
            "dateMissing": [],
            "format": "default",
            "observation": "",
            "regle_gestion": "",
            "type_oracle": "string"
        },
        {
            "name": "ASS_DGN_6",
            "description": "Diagnostic associé n° 6",
            "type": "string",
            "length": "6",
            "dateCreated": "2007",
            "dateDeleted": "2009",
            "nomenclature": "-",
            "dateMissing": [],
            "format": "default",
            "observation": "",
            "regle_gestion": "",
            "type_oracle": "string"
        },
        {
            "name": "SEN_MOT_RED",
            "description": "Rééducation sensori-motrice",
            "type": "number",
            "length": null,
            "dateCreated": "2005",
            "dateDeleted": "2009",
            "nomenclature": "-",
            "dateMissing": [],
            "format": "default",
            "observation": "",
            "regle_gestion": "",
            "type_oracle": "number"
        },
        {
            "name": "ASS_DGN_15",
            "description": "Diagnostic associé n° 15",
            "type": "string",
            "length": "6",
            "dateCreated": "2007",
            "dateDeleted": "2009",
            "nomenclature": "-",
            "dateMissing": [],
            "format": "default",
            "observation": "",
            "regle_gestion": "",
            "type_oracle": "string"
        },
        {
            "name": "ASS_DGN_4",
            "description": "Diagnostic associé n° 4",
            "type": "string",
            "length": "6",
            "dateCreated": "2005",
            "dateDeleted": "2009",
            "nomenclature": "-",
            "dateMissing": [],
            "format": "default",
            "observation": "",
            "regle_gestion": "",
            "type_oracle": "string"
        },
        {
            "name": "CAR_RSP_RED",
            "description": "Rééducation cardio-respiratoire",
            "type": "number",
            "length": null,
            "dateCreated": "2005",
            "dateDeleted": "2009",
            "nomenclature": "-",
            "dateMissing": [],
            "format": "default",
            "observation": "",
            "regle_gestion": "",
            "type_oracle": "number"
        },
        {
            "name": "ACT_TYP",
            "description": "Type d’activité",
            "type": "string",
            "length": "1",
            "dateCreated": "2005",
            "dateDeleted": "2009",
            "nomenclature": "-",
            "dateMissing": [],
            "format": "default",
            "observation": "",
            "regle_gestion": "",
            "type_oracle": "string"
        }
    ],
    "name": "T_SSRaaB",
    "title": "Description du Séjour",
    "produit": "PMSI SSR",
    "missingValues": [
        ""
    ],
    "primaryKey": [
        "ETA_NUM",
        "RHA_NUM",
        "RHS_NUM"
    ],
    "foreignKeys": [
        {
            "fields": "ETA_NUM",
            "reference": {
                "resource": "T_SSRaaE",
                "fields": "ETA_NUM"
            }
        }
    ],
    "history": {
        "dateCreated": "2005",
        "dateDeleted": "",
        "dateMissing": []
    },
    "champ": "Public et Privé",
    "observation": ""
}
