ATC1;Libellé ATC1
A;Système digestif et métabolisme
B;Sang et organes hématopoiétiques
C;Système cardio-vasculaire
D;Dermatologie
G;Système génito-urinaire et hormones sexuelles
H;Hormones systémiques, à l'exclusion des hormones sexuelles et des insulines
J;Anti-infectieux (usage systémique)
L;Antinéoplasiques et agents immunomodulants
M;Système musculo-squelettique
N;Système nerveux
P;Antiparasitaires, insecticides et répulsifs
R;Système respiratoire
S;Organes sensoriels
V;Divers
W;Homeopathie
